HW/hw2/counter_trace.vcd
$date
     Mar 01, 2026       15:16:11
$end

$version
 SystemC 3.0.2-Accellera --- Jan  1 1980 00:00:00
$end

$timescale
     1 ps
$end

$scope module SystemC $end
$var wire    1  aaaaa  clk       $end
$var wire    1  aaaab  reset       $end
$var wire    4  aaaac  count [3:0]  $end
$upscope $end
$enddefinitions  $end

$comment
All initial values are dumped below at time 0 sec = 0 timescale units.
$end

$dumpvars
1aaaaa
1aaaab
b0 aaaac
$end

#5000
0aaaaa

#10000
1aaaaa

#15000
0aaaaa
0aaaab

#20000
1aaaaa
b1 aaaac

#25000
0aaaaa

#30000
1aaaaa
b10 aaaac

#35000
0aaaaa

#40000
1aaaaa
b11 aaaac

#45000
0aaaaa

#50000
1aaaaa
b100 aaaac

#55000
0aaaaa

#60000
1aaaaa
b101 aaaac

#65000
0aaaaa

#70000
1aaaaa
b110 aaaac

#75000
0aaaaa

#80000
1aaaaa
b111 aaaac

#85000
0aaaaa

#90000
1aaaaa
b1000 aaaac

#95000
0aaaaa

#100000
1aaaaa
b1001 aaaac

#105000
0aaaaa

#110000
1aaaaa
b1010 aaaac

#115000
0aaaaa

#120000
1aaaaa
b1011 aaaac

#125000
0aaaaa

#130000
1aaaaa
b1100 aaaac

#135000
0aaaaa

#140000
1aaaaa
b1101 aaaac

#145000
0aaaaa

#150000
1aaaaa
b1110 aaaac

#155000
0aaaaa

#160000
1aaaaa
b1111 aaaac

#165000
0aaaaa

#170000
1aaaaa
b0 aaaac

#175000
0aaaaa

#180000
1aaaaa
b1 aaaac

#185000
0aaaaa

#190000
1aaaaa
b10 aaaac

